exp2,number of samples,A1m1f GeographicLib_devel relative error
9,512,1.93410915944705730554626519397227239237450107842662683221846009473665617406368255615234375e-16
10,1024,2.1509983017541541572813710624855082626907649642235276221668982543633319437503814697265625e-16
11,2048,2.2646834620884119400630426074005192737972728955764267766426200978457927703857421875e-16
12,4096,2.58563152425642788693347127903073425494727172364861633724331113626249134540557861328125e-16
13,8192,2.58563152425642788693347127903073425494727172364861633724331113626249134540557861328125e-16
14,16384,2.58563152425642788693347127903073425494727172364861633724331113626249134540557861328125e-16
15,32768,2.58563152425642788693347127903073425494727172364861633724331113626249134540557861328125e-16
16,65536,2.6729251740021574259437232438592211832965837305618739261348082436597906053066253662109375e-16
17,131072,2.6729251740021574259437232438592211832965837305618739261348082436597906053066253662109375e-16
18,262144,2.6729251740021574259437232438592211832965837305618739261348082436597906053066253662109375e-16
19,524288,2.6729251740021574259437232438592211832965837305618739261348082436597906053066253662109375e-16
20,1048576,2.6729251740021574259437232438592211832965837305618739261348082436597906053066253662109375e-16
21,2097152,2.7127972927555022042292529042526268158462665722359397069141095926170237362384796142578125e-16
22,4194304,2.712868738493992225834468830784153769269037288595913803845860456931404769420623779296875e-16
23,8388608,2.712868738493992225834468830784153769269037288595913803845860456931404769420623779296875e-16
