exp2,number of samples,A2m1f nsajko-polynomials relative error
9,512,1.503234135861456242645194195498641255295138130336496384842348561505787074565887451171875e-16
10,1024,1.503234135861456242645194195498641255295138130336496384842348561505787074565887451171875e-16
11,2048,1.54437043581959527904904638521110251760805090709242903823650294725666753947734832763671875e-16
12,4096,1.54437043581959527904904638521110251760805090709242903823650294725666753947734832763671875e-16
13,8192,1.561678623016230002603880150735659038347950713747358530980591240222565829753875732421875e-16
14,16384,1.61378506232627378836167841002469074309909696459709727012210578322992660105228424072265625e-16
15,32768,1.63511444022874017684997565010003291288106350609594941136748502685804851353168487548828125e-16
16,65536,1.63511444022874017684997565010003291288106350609594941136748502685804851353168487548828125e-16
17,131072,1.63511444022874017684997565010003291288106350609594941136748502685804851353168487548828125e-16
18,262144,1.675727013948524993034098289262761480615518600890967437777590021141804754734039306640625e-16
19,524288,1.675727013948524993034098289262761480615518600890967437777590021141804754734039306640625e-16
20,1048576,1.68487260138870115084303462359037746860422919280460274382704710660618729889392852783203125e-16
21,2097152,1.68487260138870115084303462359037746860422919280460274382704710660618729889392852783203125e-16
22,4194304,1.68487260138870115084303462359037746860422919280460274382704710660618729889392852783203125e-16
23,8388608,1.68542047523659910204472896648874195049978689554814881290667472057975828647613525390625e-16
