exp2,number of samples,A2m1f GeographicLib_devel relative error
9,512,2.402249585216320463162621984463415536185750313001585620753530747606419026851654052734375e-16
10,1024,2.9993983020208533768528589766604103054434659193609735705621233137208037078380584716796875e-16
11,2048,2.9993983020208533768528589766604103054434659193609735705621233137208037078380584716796875e-16
12,4096,3.1364133282850821734626345656852416087755685354838963707635457467404194176197052001953125e-16
13,8192,3.1364133282850821734626345656852416087755685354838963707635457467404194176197052001953125e-16
14,16384,3.1364133282850821734626345656852416087755685354838963707635457467404194176197052001953125e-16
15,32768,3.1364133282850821734626345656852416087755685354838963707635457467404194176197052001953125e-16
16,65536,3.1364133282850821734626345656852416087755685354838963707635457467404194176197052001953125e-16
17,131072,3.1364133282850821734626345656852416087755685354838963707635457467404194176197052001953125e-16
18,262144,3.188152236385500210554360520809490887635858085043250031986872272682376205921173095703125e-16
19,524288,3.2109484021138072612033396831265948237895560091019475645879310832242481410503387451171875e-16
20,1048576,3.255290441927715145435894630683869977508024099767391934534543906920589506626129150390625e-16
21,2097152,3.255290441927715145435894630683869977508024099767391934534543906920589506626129150390625e-16
22,4194304,3.255290441927715145435894630683869977508024099767391934534543906920589506626129150390625e-16
23,8388608,3.265554174186460192793158700229449233163543154546959446093978840508498251438140869140625e-16
